import sys

def is_evoluted(sample, current_species):
	i = j = 0
	while i < len(sample):
		if i == len(current_species):
			return False
		if sample[i] == current_species[j]:
			i += 1
			j += 1
	return True

def diff(fossils_found):
    evl1 = []
    evl2 = []
    for i in range(1, MAX):
        if fossils_found[i][0] == 0:
            continue
        else:
            if fossils_found[i][1] == 0:
                if len(evl1) == 0:
                    evl1.append(fossils_found[i][0])
                elif len(evl2) == 0:
                    if is_evoluted(evl[-1], fossils_found[i][0]):
                        evl1.append(fossils_found[i][0])
                    else:
                        evl2.append(fossils_found[i][0])
                else:
                    if not is_evoluted(evl1[-1], fossils_found[i][0]):
                        evl2.append(fossils_found[i][0])
                    elif not is_evoluted(evl2[-1], fossils_found[i][0]):
                        evl1.append(fossils_found[i][0])
                    else:
                        return -1
            else:
                if len(evl1) == 0:
                    evl1.append(fossils_found[i][0])
                    evl2.append(fossils_found[i][1])
                elif len(lst2) == 0:
                    if is_evoluted(evl1[-1], fossils_found[i][0]):
                        evl1.append(fossils_found[i][0])
                        evl2.append(fossils_found[i][1])
                    elif is_evoluted(lst1[-1], fossils_found[i][1]):
                        evl1.append(fossils_found[i][1])
                        evl2.append(fossils_found[i][0])
                    else:
                        return -1
    return len(evl1),len(evl2),evl1,evl2